Experiment_on_digital_system/Adder_subtractor_and_encoder/half_adder/simulation/qsim/half_adder.msim.vcd
$comment
	File created using the following command:
		vcd file half_adder.msim.vcd -direction
$end
$date
	Tue Oct 24 15:57:16 2023
$end
$version
	ModelSim Version 10.5b
$end
$timescale
	1ps
$end

$scope module half_adder_vlg_vec_tst $end
$var reg 4 ! a [3:0] $end
$var reg 4 " b [3:0] $end
$var reg 1 # select $end
$var wire 1 $ out [3] $end
$var wire 1 % out [2] $end
$var wire 1 & out [1] $end
$var wire 1 ' out [0] $end
$var wire 1 ( overflow $end

$scope module i1 $end
$var wire 1 ) gnd $end
$var wire 1 * vcc $end
$var wire 1 + unknown $end
$var tri1 1 , devclrn $end
$var tri1 1 - devpor $end
$var tri1 1 . devoe $end
$var wire 1 / ~QUARTUS_CREATED_GND~I_combout $end
$var wire 1 0 b[3]~input_o $end
$var wire 1 1 a[3]~input_o $end
$var wire 1 2 a[1]~input_o $end
$var wire 1 3 b[2]~input_o $end
$var wire 1 4 b[1]~input_o $end
$var wire 1 5 b[0]~input_o $end
$var wire 1 6 a[0]~input_o $end
$var wire 1 7 a[2]~input_o $end
$var wire 1 8 overflow~1_combout $end
$var wire 1 9 select~input_o $end
$var wire 1 : overflow~0_combout $end
$var wire 1 ; overflow~2_combout $end
$upscope $end
$upscope $end
$enddefinitions $end
#0
$dumpvars
b1000 !
b110 "
0#
0'
0&
0%
0$
0(
0)
1*
x+
1,
1-
1.
0/
00
11
02
13
14
05
06
07
08
09
1:
0;
$end
#10000
b0 !
b10 "
b0 "
04
03
01
0:
1;
1(
0;
0(
#40000
b100 !
b110 !
b111 !
b1000 "
b1100 "
13
10
16
12
17
18
1;
1(
#50000
b11 !
b1 !
b0 !
06
02
07
08
#60000
b100 "
b0 "
03
00
0;
0(
#90000
b100 !
b110 !
b111 !
16
12
17
18
#100000
b1 "
b11 "
b1011 "
b1111 "
15
14
13
10
08
1;
1(
#130000
b11 !
b1 !
b0 !
06
02
07
1:
#140000
b1000 !
b1110 "
b1100 "
b100 "
b0 "
b1100 !
05
04
03
00
17
11
18
0:
0;
0(
#150000
b100 !
b1000 "
b1100 "
b0 !
13
10
07
01
08
1;
1(
#170000
b10 !
b100 "
b0 "
b110 !
03
00
12
17
18
0;
0(
#180000
b10 "
b110 "
14
13
08
#190000
b100 !
b0 !
02
07
1:
1;
1(
#200000
b100 "
b0 "
04
03
0:
0;
0(
#210000
b1 !
b11 !
b111 !
16
12
17
18
#220000
b110 !
b100 !
b0 !
06
02
07
08
#230000
b1 !
b11 !
16
12
18
#240000
b1000 "
b1010 "
b1110 "
14
13
10
08
1;
1(
#250000
b10 !
b0 !
06
02
1:
#270000
b110 "
b100 "
b0 "
04
03
00
0:
0;
0(
